광역지자체,사고건수,사망자수,중상자수,부상자수,인구10만명당발생건수,자동차1만대당발생건수,자동차1만대당사망자수,자동차1만대당중상자수,자동차1만대당부상자수
전국,"217,148","3,781","74,258","323,037",420.5,80.5,1.4,27.5,119.7
서울,"38,795",304,"11,382","53,751",399.1,107.3,0.8,31.5,148.7
부산,"11,937",123,"4,548","16,468",349.2,78.3,0.8,29.8,108
대구,"13,199",120,"4,173","19,332",536.7,99.1,0.9,31.3,145.2
인천,"7,632",113,"2,473","10,976",259.4,45.3,0.7,14.7,65.1
광주,"7,459",76,"1,484","11,977",497.4,103.3,1.1,20.5,165.8
대전,"7,554",93,"2,037","11,432",494.8,105.2,1.3,28.4,159.2
울산,"3,992",79,"1,559","5,777",341.7,62,1.2,24.2,89.8
세종,795,20,288,"1,142",247.4,47.4,1.2,17.2,68.1
경기,"53,448",678,"16,829","81,174",412.6,86.2,1.1,27.1,130.9
강원,"7,498",197,"2,659","11,922",491.9,81.1,2.1,28.8,129
충북,"9,618",224,"3,666","15,687",596.3,95.7,2.2,36.5,156
충남,"8,807",354,"4,127","13,283",406.6,62.7,2.5,29.4,94.6
전북,"6,929",246,"2,530","10,452",379.1,59.8,2.1,21.8,90.2
전남,"9,787",330,"3,404","15,680",545.2,72.4,2.4,25.2,116
경북,"13,966",409,"5,883","20,919",520.7,74.4,2.2,31.3,111.4
경남,"11,493",333,"5,813","16,454",341.4,56.2,1.6,28.4,80.5
제주,"4,239",82,"1,403","6,611",653.2,69.1,1.3,22.9,107.7
