광역지자체,사고건수,사망자수,중상자수,부상자수,인구10만명당발생건수,자동차1만대당발생건수,자동차1만대당사망자수,자동차1만대당중상자수,자동차1만대당부상자수
전국,"217148",3781,74258,323037,421,81,1,28,120
서울,38795,304,11382,53751,399,107,1,32,149
부산,11937,123,4548,16468,349,78,1,30,108
대구,13199,120,4173,19332,537,99,1,31,145
인천,7632,113,2473,10976,259,45,1,15,65
광주,7459,76,1484,11977,497,103,1,21,166
대전,7554,93,2037,11432,495,105,1,28,159
울산,3992,79,1559,5777,342,62,1,24,90
세종,795,20,288,1142,247,47,1,17,68
경기,53448,678,16829,81174,413,86,1,27,131
강원,7498,197,2659,11922,492,81,2,29,129
충북,9618,224,3666,15687,596,96,2,37,156
충남,8807,354,4127,13283,407,63,3,29,95
전북,6929,246,2530,10452,379,60,2,22,90
전남,9787,330,3404,15680,545,72,2,25,116
경북,13966,409,5883,20919,521,74,2,31,111
경남,11493,333,5813,16454,341,56,2,28,81
제주,4239,82,1403,6611,653,69,1,23,108
